[
	{
		"_id": "a-100",
		"_parentId": "co-100",
		"_type": "article",
		"_classes": "banner_01",
		"title": "a-100",
		"displayTitle": "",
		"body": ""
	},
		{
		"_id": "a-200",
		"_parentId": "co-200",
		"_type": "article",
		"_classes": "banner_01",
		"title": "a-200",
		"displayTitle": "",
		"body": ""
	},
		{
		"_id": "a-300",
		"_parentId": "co-300",
		"_type": "article",
		"_classes": "banner_01",
		"title": "a-200",
		"displayTitle": "",
		"body": ""
	},
		{
		"_id": "a-400",
		"_parentId": "co-400",
		"_type": "article",
		"_classes": "banner_01",
		"title": "a-400",
		"displayTitle": "",
		"body": ""
	},
		{
		"_id": "a-500",
		"_parentId": "co-500",
		"_type": "article",
		"_classes": "banner_01",
		"title": "a-500",
		"displayTitle": "",
		"body": ""
	},
		{
		"_id": "a-600",
		"_parentId": "co-600",
		"_type": "article",
		"_classes": "banner_01",
		"title": "a-600",
		"displayTitle": "",
		"body": ""
	},
		{
		"_id": "a-700",
		"_parentId": "co-700",
		"_type": "article",
		"_classes": "banner_01",
		"title": "a-700",
		"displayTitle": "",
		"body": ""
	},
		{
		"_id": "a-800",
		"_parentId": "co-800",
		"_type": "article",
		"_classes": "banner_01",
		"title": "a-800",
		"displayTitle": "",
		"body": ""
	}
	
]