[
	{
		"_id":"c-100",
		"_parentId":"b-100",
		"_type":"component",
		"_component":"graphic",
		"_classes":"",
		"_layout":"full",
		"title":"",
		"displayTitle":"",
		"body":"Going Live on Facebook with a mobile device doesn’t require an API. But, when you tap into it, you gain access to many advanced functions and features:<br><br><ol><li><strong>Uplevel production values</strong> by shooting Live video on a variety of devices, from standalone cameras to drones. Mix audio and video sources, incorporate multiple camera angles, and add special effects &mdash; including “lower third” graphics and onscreen logos.</li><li><strong>Make your Live videos more interactive</strong> by accessing comments, reactions, and mentions (with the Graph API). Enable realtime comment moderation. </li><li><strong>Let people go Live from your apps, or devices you manufacture. </strong></li><li><strong>Stream long-form videos</strong> with continuous Live. Without the API, Live streams max out at four hours. The Live API simplifies launching multiday &mdash; and even multiyear &mdash; Live streams.</li><li><strong>Streaming <a href='https://facebook360.fb.com/live360/' target='_blank'>Live 360 video</a></strong> requires the API. </li></ol><br>The Live API is both a data feed and the glue necessary to create higher-quality Live videos on Facebook. The Live API is free to use, but depending on your goals, you may need to pay developers to write code to tap into it. You can also access the Live API from a Facebook profile or Page via Control Panel or Page publishing tools. ",
		"_graphic": {
			"src": "course/en/images/intro.png",
			"alt": "Film crew"
		},
		"instruction":"",
		"_pageLevelProgress": {
			"_isEnabled": true
		}
	},
	{
		"_id":"c-120",
		"_parentId":"b-120",
		"_type":"component",
		"_component":"text",
		"_classes":"",
		"_layout":"full",
		"title":"Who is the Live API for? ",
		"displayTitle":"Who is the Live API for? ",
		"body":"If you want to produce and distribute complex or interactive Live video, the Live API is for you. It takes three skillsets to get a Live API feed up and running (some people or organizations may have all three):<br><br><ol><li><strong>Creatives</strong> are the publishers or partners  who want to stream content Live to Facebook via the API.</li><li><strong>Video producers</strong> shoot and edit Live video. They’re experts in the equipment needed to produce high-quality Live video, and can generate special effects and on-screen visuals.</li><li><strong>Developers</strong> use the API to connect your video equipment to Facebook. They can implement interactive features like comment moderation, and build custom interfaces you can use to create and upload Live videos.</li></ol><br>Depending on your needs, you may have resources to take on all three roles, but if you’d like help finding a producer or developer, consider consulting a <a href='https://developers.facebook.com/docs/mediasolutions' target='_blank'>Media Solutions Partner</a>. These third-party companies are Facebook-certified experts in Facebook APIs and video requirements. <h2 style='margin-top:3.5em'>Explore video across Facebook and Instagram</h2>Check out the following Blueprint courses: <ul><em><li>Creative Considerations for Video in Mobile Feed</li><li>Immersive Storytelling With 360 Photo and Video</li><li>Connect and Engage With Your Audience Using Facebook Live</li></em></ul>",
		"instruction":"",
		"_pageLevelProgress": {
			"_isEnabled": true
		}
	},
	{
		"_id": "c-199",
		"_parentId": "b-199",
		"_type": "component",
		"_component": "co-jump",
		"_classes": "color-test",
		"_preLinkBody": "Let’s ",
		"_linkBody": "Get Started",
		"_postLinkBody": " by considering different methods of accessing the API, based on your business and creative goals.",
		"_link": "#/id/co-200",
		"_graphic": "adapt/css/assets/icon_nextPage.png",
		"_pageLevelProgress": {
			"_isEnabled": false
		}
	},





	{
		"_id":"c-200",
		"_parentId":"b-200",
		"_type":"component",
		"_component":"text",
		"_classes":"",
		"_layout":"full",
		"title":"Ways to access the Live API",
		"displayTitle":"",
		"body":"There are a few ways to access the Live API: the <strong>Control Panel</strong>, the <strong>Page Publishing Tool</strong>, or <strong>programmatically</strong>.<br><br><ul style='margin-left:2em;'><li><strong>Control Panel</strong> is ideal for gamers, or anyone who wants to stream high-quality Live video without writing code.</li><li>The <strong>Page Publishing Tool</strong> is a Control Panel-equivalent exclusively for Pages. It includes additional functions for brands and publishers.</li><li>Going Live <strong>programmatically via the API</strong> gives you the most functions, and requires coding know-how.</li></ul><br>A content creator might choose different methods to deliver different Live experiences. We’re going to cover all of them to help you weigh the benefits and limits of each.<br><br> <div style='overflow-x:auto;'><table class='table-style-6'><tr><th class='table-style-6'style='text-align:left'></th><th class='table-style-6'style='text-align:left'>Control Panel</th><th class='table-style-6'style='text-align:left'>Publishing Tool</th><th class='table-style-6'style='text-align:left'>Program-matically</th></tr><tr><td class='table-style-6' style='text-align:left;'>Requires a developer?</td><td class='table-style-6' style='text-align:left;'>No</td><td class='table-style-6' style='text-align:left;'>No</td><td class='table-style-6' style='text-align:left;'>Yes</td></tr><tr><td class='table-style-6' style='text-align:left;'> Post to a profile?</td><td class='table-style-6' style='text-align:left;'>Yes</td><td class='table-style-6' style='text-align:left;'>No</td><td class='table-style-6' style='text-align:left;'>Yes</td></tr><td class='table-style-6' style='text-align:left;'> Post to a Page?</td><td class='table-style-6' style='text-align:left;'>Yes</td><td class='table-style-6' style='text-align:left;'>Yes</td><td class='table-style-6' style='text-align:left;'>Yes</td><tr><td class='table-style-6' style='text-align:left;'> Post to groups or events?</td><td class='table-style-6' style='text-align:left;'>Yes</td><td class='table-style-6' style='text-align:left;'>No</td><td class='table-style-6' style='text-align:left;'>Yes</td></tr><tr><td class='table-style-6' style='text-align:left;'> Stream to a destination other than Facebook?</td><td class='table-style-6' style='text-align:left;'>No</td><td class='table-style-6' style='text-align:left;'>No</td><td class='table-style-6' style='text-align:left;'>Yes</td></tr><tr><td class='table-style-6' style='text-align:left;'> Apply audience controls?</td><td class='table-style-6' style='text-align:left;'>No&nbsp;* </td><td class='table-style-6' style='text-align:left;'>With limits&nbsp;**</td><td class='table-style-6' style='text-align:left;'>Yes</td></tr><tr><td class='table-style-6' style='text-align:left;'>Schedule Live video?</td><td class='table-style-6' style='text-align:left;'>No</td><td class='table-style-6' style='text-align:left;'>Yes</td><td class='table-style-6' style='text-align:left;'>Yes</td></tr><tr><td class='table-style-6' style='text-align:left;'> Broadcast Continuous Live?</td><td class='table-style-6' style='text-align:left;'>No</td><td class='table-style-6' style='text-align:left;'>Yes</td><td class='table-style-6' style='text-align:left;'>Yes</td></tr></table><!-- table end --></div><!-- overflow-x:auto; end --><br><em>* Control Panel lets people apply the same privacy settings as posting to their own timelines.<br>** The Page Publishing Tool only allows you to geo-gate up to 25 countries.</em><br><br>Review these functions to decide which method is the best fit for your broadcast and your goals.",
		"instruction":"",
		"_pageLevelProgress": {
			"_isEnabled": true
		}
	},
	{
		"_id":"c-210",
		"_parentId":"b-210",
		"_type":"component",
		"_component":"text",
		"_classes":"",
		"_layout":"full",
		"title":"Equipment",
		"displayTitle":"Equipment",
		"body":"All three methods of going live via the API require both a high-quality <strong>camera</strong> and a <strong>video encoder</strong>. ",
		"instruction":"",
		"_pageLevelProgress": {
			"_isEnabled": true
		}
	},
		{
		"_id":"c-220",
		"_parentId":"b-220",
		"_type":"component",
		"_component":"text",
		"_classes":"",
		"_layout":"left",
		"title":"Camera",
		"displayTitle":"",
		"body":"<h2>Camera</h2>The Live API can stream video with high production values, so Facebook recommends capturing Live video from high-resolution devices such as:<br><br><ul><li><strong>Facebook Live integrated cameras</strong> (capable of 1080p output). These may be called livestreaming or web-enabled cameras. Choose an HD camera with XLR inputs and HD-SDI outputs. </li><li><strong>Drones.</strong></li><li>PC video games, via <strong>screencasting</strong>.</li></ul><br>All three methods of broadcasting via the Live API will let you use any type of camera that connects to your computer. ",
		"instruction":"",
		"_pageLevelProgress": {
			"_isEnabled": false
		}
	},
		{
		"_id":"c-225",
		"_parentId":"b-220",
		"_type":"component",
		"_component":"text",
		"_classes":"",
		"_layout":"right",
		"title":"Encoder",
		"displayTitle":"",
		"body":"<h2>Encoder</h2>Video encoders compress and convert high-quality video files into feeds that can be sent across the internet. <br><br>Encoders may be pieces of equipment or software programs. You can’t go Live via the API without one. <br><br>The free and open-sourced software encoder OBS can provide a helpful interface between your computer and the API. Software encoders are an alternative to physical hardware encoders.<br><br>Facebook recommends hardware encoders because they are typically more reliable, simpler to configure, and easier to troubleshoot. Look for one that accepts a wired Ethernet cable: this is more dependable than streaming over wifi.",
		"instruction":"",
		"_pageLevelProgress": {
			"_isEnabled": false
		}
	},
	{
		"_id":"c-226",
		"_parentId":"b-226",
		"_type":"component",
		"_component":"text",
		"_classes":"",
		"_layout":"full",
		"title":"Additional equipment",
		"displayTitle":"",
		"body":"<div style='padding:2em;margin-top:-2em;margin-bottom:3em; background-color:#eceff5;border-radius:4;'><em>Note: It is against Facebook policy to go Live via Control Panel, Publishing Tools, or the API from phones or tablets. If you want to stream Live video from a smartphone or tablet, do so  <em>without the API</em>, or invite <a href='https://www.facebook.com/facebookmedia/guides/live-contributor-role' target='_blank'>Live Contributors</a> to add content. </em></div>To go above and beyond a basic Live stream, you may want to investigate acquiring the following:<br><br><ul><li><strong>Microphones</strong> capture audio signal. You can run a mic through a camera, or through an audio mixing board.</li><li><strong>Audio Mixers</strong> add support for multiple microphones and pre-recorded audio.</li><li><strong>Video Switchers</strong> add support for multiple cameras and enable use of graphics; can also take audio from a mixer. Look for one with built-in multi-view, four or more inputs and two or more outputs. </li><li><strong>Computers</strong> are used to start and stop a Live broadcast on Facebook via Publishing Tools or API.</li></ul>",
		"instruction":"",
		"_pageLevelProgress": {
			"_isEnabled": false
		}
	},
	{
		"_id":"c-230",
		"_parentId":"b-230",
		"_type":"component",
		"_component":"text",
		"_classes":"",
		"_layout":"full",
		"title":"Distributing Live Video",
		"displayTitle":"Distributing Live Video",
		"body":"Videos created with the Live API can be posted on or off Facebook, depending on which method of accessing the API you choose. Control Panel can only post to Facebook, and the Page Publishing Tool can only publish to Facebook Pages. <br><br>Anyone can <strong>share</strong> your video post across Facebook, unless you specifically disallow that while setting up the feed.<br><br>Any Live video can be <strong>embedded in external websites or blogs</strong> by choosing <span style='color:#777; background-color:#eceff5; padding: .2em .4em;letter-spacing:.12em;'>&bull;&bull;&bull;</span> from the top-right of the post and selecting “Embed.” The Live API provides a parameter that lets developers allow or disallow embedding. <br><br>It’s against Facebook policy to stream Live video to third-party sites or video-sharing services. The only exception is if you own <strong>outside distribution channels</strong>. (For example, a sports team could broadcast game footage Live to Facebook, their own website, and their official mobile app.)",
		"instruction":"",
		"_pageLevelProgress": {
			"_isEnabled": true
		}
	},
	{
		"_id":"c-240",
		"_parentId":"b-240",
		"_type":"component",
		"_component":"text",
		"_classes":"",
		"_layout":"full",
		"title":"Audience controls",
		"displayTitle":"Advanced Functions",
		"body":"Some Live Video features and functions are available <em>only</em> when you go Live with Page publishing tools, or programmatically via the API.<h2 style='margin-top:3.5em'>Audience Controls</h2>There are cases where broadcasters might want to prevent people from finding a Live video. Some global sporting events grant exclusive distribution rights to television networks in different countries, so broadcasting worldwide may be a contract violation. <br><br>Audience controls let you prevent potential viewers from finding a Live stream, based on these parameters: ",
		"instruction":"",
		"_pageLevelProgress": {
			"_isEnabled": true
		}
	},
	{
		"_id":"c-250",
		"_parentId":"b-250",
		"_type":"component",
		"_component":"text",
		"_classes":"",
		"_layout":"left",
		"title":"Title",
		"displayTitle":"",
		"body":"<ul style='margin-top:-4em'><li>Country*</li><li>Region</li><li>Zip code</li></ul>",
		"instruction":"",
		"_pageLevelProgress": {
			"_isEnabled": false
		}
	},
		{
		"_id":"c-255",
		"_parentId":"b-250",
		"_type":"component",
		"_component":"text",
		"_classes":"",
		"_layout":"right",
		"title":"Title",
		"displayTitle":"",
		"body":"<ul style='margin-top:-4em'><li>Language</li><li>Age</li><li>Gender</li></ul>",
		"instruction":"",
		"_pageLevelProgress": {
			"_isEnabled": false
		}
	},
		{
		"_id":"c-256",
		"_parentId":"b-250",
		"_type":"component",
		"_component":"text",
		"_classes":"",
		"_layout":"full",
		"title":"",
		"displayTitle":"",
		"body":"<em>* The Publishing Tool can geo-gate up to 25 countries; to restrict beyond that number requires accessing the Live API programmatically.",
		"instruction":"",
		"_pageLevelProgress": {
			"_isEnabled": false
		}
	},
	{
		"_id":"c-260",
		"_parentId":"b-260",
		"_type":"component",
		"_component":"text",
		"_classes":"",
		"_layout":"full",
		"title":"Continuous Live video",
		"displayTitle":"",
		"body":"<h2>Continuous Live</h2>Facebook Live videos have a maximum length of four hours &mdash; unless they’re continuous. <br><br>The Live API lets organizations like parks, aquariums, museums &mdash; and even NASA &mdash; stream Live video for extended periods. <br><br>Note that continuous Live streams can’t be replayed, don’t send notifications to followers, and become unpublished from a Timeline when the publisher ends the stream.",
		"instruction":"",
		"_pageLevelProgress": {
			"_isEnabled": false
		}
	},
	{
		"_id":"c-270",
		"_parentId":"b-270",
		"_type":"component",
		"_component":"text",
		"_classes":"",
		"_layout":"left",
		"title":"Scheduled Live Video",
		"displayTitle":"",
		"body":"<h2>Scheduled Live</h2>Scheduling Live video may help build anticipation and buzz with your audience before your broadcast begins, so you can start strong with an audience already assembled.<br><br>Pages can <a href='https://media.fb.com/2016/10/18/scheduling-a-live-broadcast-via-the-live-api/' target='_blank'>schedule a live broadcast</a> up to one week in advance. People who opt in via the advance announcement post will receive a one-time notification alerting them when it’s about to start.",
		"instruction":"",
		"_pageLevelProgress": {
			"_isEnabled": true
		}
	},
	{
		"_id":"c-275",
		"_parentId":"b-270",
		"_type":"component",
		"_component":"graphic",
		"_classes":"",
		"_layout":"right",
		"title":"Scheduled Live Video",
		"displayTitle":"",
		"body":"",
		"_graphic": {
			"src": "course/en/images/get-reminder-clicked.png",
			"alt": "Announcement post with opt-in reminder"
		},
		"instruction":"",
		"_pageLevelProgress": {
			"_isEnabled": true
		}
	},
	{
		"_id":"c-276",
		"_parentId":"b-276",
		"_type":"component",
		"_component":"text",
		"_classes":"",
		"_layout":"full",
		"title":"",
		"displayTitle":"",
		"body":"Consider how each method of streaming Live could help meet your creative or business goals. We’ll take a closer look at all three approaches, starting with the  Control Panel. ",
		"instruction":"",
		"_pageLevelProgress": {
			"_isEnabled": false
		}
	},
	{
		"_id": "c-299",
		"_parentId": "b-299",
		"_type": "component",
		"_component": "co-jump",
		"_classes": "color-test",
		"_preLinkBody": "When you ",
		"_linkBody": "Go Live with Control Panel",
		"_postLinkBody": ", you can access some functionalities of the API without too much technical know-how.",
		"_link": "#/id/co-300",
		"_graphic": "adapt/css/assets/icon_nextPage.png",
		"_pageLevelProgress": {
			"_isEnabled": false
		}
	},





	{
		"_id":"c-300",
		"_parentId":"b-300",
		"_type":"component",
		"_component":"text",
		"_classes":"",
		"_layout":"full",
		"title":"The Live Control Panel",
		"displayTitle":"",
		"body":"The Live Control Panel lets people stream Live video from hardware (like cameras) and software (like video games) &mdash; without dealing with code. Tools that were previously just for Pages are now available to gamers, artists, influencers, and emerging talent from other streaming platforms &mdash; plus anyone who’s just starting out.<br><br>Page admins can choose this method to go Live to group or event pages without a developer, but only from their personal profiles. To go live as a Page to groups and events, you’ll need to tap into the Live API programmatically.",
		"instruction":"",
		"_pageLevelProgress": {
			"_isEnabled": true
		}
	},
	{
		"_id":"c-310",
		"_parentId":"b-310",
		"_type":"component",
		"_component":"text",
		"_classes":"",
		"_layout":"left",
		"title":"Why choose to go Live from Control Panel?",
		"displayTitle":"",
		"body":"<h2>Why choose to go Live from Control Panel?</h2><ul><li>Low technical barrier-to-entry</li><li>To go Live from external cameras, desktop, or laptop</li><li>To share your computer screen with your Live audience (Ex. to livestream video game content)</li><li>To tap into the API without approval from Facebook</li><li>To go Live in a group or event page that you’re a member of</li></ul>",
		"instruction":"",
		"_pageLevelProgress": {
			"_isEnabled": true
		}
	},
	{
		"_id":"c-315",
		"_parentId":"b-310",
		"_type":"component",
		"_component":"text",
		"_classes":"",
		"_layout":"right",
		"title":"What are the requirements?",
		"displayTitle":"",
		"body":"<h2>What are the requirements?</h2><ul><li>A Facebook profile</li><li>A video capture device</li><li>A video encoder</li></ul>",
		"instruction":"",
		"_pageLevelProgress": {
			"_isEnabled": true
		}
	},
	{
		"_id":"c-320",
		"_parentId":"b-320",
		"_type":"component",
		"_component":"text",
		"_classes":"",
		"_layout":"left",
		"title":"What are the limitations?",
		"displayTitle":"",
		"body":"<h2>What are the limitations?</h2><ul style='padding-right:2em;'><li>There’s a four-hour time limit when posting to a profile, event, or group </li><li>Can’t stream directly from mobile phone or tablet</li><li>Can’t simulcast</li><li>Very limited audience controls</li><li>Only Page admins posting to a Page can geo-gate content</li><li>Can’t go Live continuously</li><li>Scheduled Live is only available when posting to Pages</li></ul>",
		"instruction":"",
		"_pageLevelProgress": {
			"_isEnabled": true
		}
	},
		{
		"_id":"c-325",
		"_parentId":"b-320",
		"_type":"component",
		"_component":"text",
		"_classes":"",
		"_layout":"left",
		"title":"Where can you stream to?",
		"displayTitle":"",
		"body":"<h2>Where can you stream to?</h2><ul><li>Your own Timeline</li><li>A friend’s Timeline </li><li>A Facebook Page</li><li>A Facebook events page</li><li>A Facebook group</li></ul>",
		"instruction":"",
		"_pageLevelProgress": {
			"_isEnabled": true
		}
	},
		{
		"_id":"c-330",
		"_parentId":"b-330",
		"_type":"component",
		"_component":"graphic",
		"_classes":"",
		"_layout":"full",
		"title":"How do you go Live from the Control Panel?",
		"displayTitle":"How do you go Live from the Control Panel?",
		"body":"Ensure that you have streaming software installed. Then, start from your profile, or at <a href='https://www.facebook.com/live/create' target='_blank'>https://www.facebook.com/live/create</a>. ",
		"_graphic": {
			"src": "course/en/images/ControlPanel01.png",
			"alt": "Go Live with Your Gear landing page"
		},
		"instruction":"",
		"_pageLevelProgress": {
			"_isEnabled": true
		}
	},
	{
		"_id":"c-331",
		"_parentId":"b-330",
		"_type":"component",
		"_component":"graphic",
		"_classes":"",
		"_layout":"full",
		"title":"",
		"displayTitle":"",
		"body":"<ol><li>Click the <span style='padding:.2em .4em;color:#fff;background-color:#3b5998;'><strong>Create Live Stream</strong></span> button.</li><br><li>Choose where to broadcast your Live video to: your Timeline, a friend’s Timeline, a group, event page, or Page you manage.</li></ol>",
		"_graphic": {
			"src": "course/en/images/ControlPanel02.png",
			"alt": "Go Live with Your Gear landing page"
		},
		"instruction":"",
		"_pageLevelProgress": {
			"_isEnabled": false
		}
	},
	{
		"_id":"c-332",
		"_parentId":"b-330",
		"_type":"component",
		"_component":"graphic",
		"_classes":"",
		"_layout":"full",
		"title":"",
		"displayTitle":"",
		"body":"<ol start='3'><li>Next, supply the server URL and/or stream key from your encoder. Stream keys can only be used once, so you’ll generate a new one for each Live video. Never share your stream key with anyone; it could allow them to take over your broadcast. Server URLs are persistant, and a way to identify your encoder.<br><br>Provide a title and description for your video. If you’re a gamer, tag the video game you’ll be playing. Make it easier for people to find your video by setting it to “public” and checking in at a location. This will add your broadcast to the Live Map. </li></ol>",
		"_graphic": {
			"src": "course/en/images/ControlPanel03.png",
			"alt": "Go Live with Your Gear landing page"
		},
		"instruction":"",
		"_pageLevelProgress": {
			"_isEnabled": false
		}
	},
	{
		"_id":"c-333",
		"_parentId":"b-330",
		"_type":"component",
		"_component":"graphic",
		"_classes":"",
		"_layout":"full",
		"title":"",
		"displayTitle":"",
		"body":"<ol start='4'><li>A preview window will appear. If you like how it looks, <span style='padding:.2em .4em;color:#fff;background-color:#3b5998;font-weight:bold;'>Go Live</span>.</li></ol>",
		"_graphic": {
			"src": "course/en/images/ControlPanel04.png",
			"alt": "Go Live with Your Gear landing page"
		},
		"instruction":"",
		"_pageLevelProgress": {
			"_isEnabled": false
		}
	},
	{
		"_id":"c-340",
		"_parentId":"b-340",
		"_type":"component",
		"_component":"text",
		"_classes":"",
		"_layout":"full",
		"title":"Title",
		"displayTitle":"",
		"body":"You can embed your Live stream in a website by clicking the gear icon in the “Create Live Stream” dialog. This will give you an HTML code you can copy-and-paste into a website or blog post.<br><br>Once you’re streaming, people will be able to react and comment.<br><br>When streaming to an event, group, or Page, the administrators of those channels will have final control over your video’s visibility. If you are streaming to your own Timeline:<br><ul><li>You’ll be able to choose your audience (Public, Friends and friends of anyone tagged, Only Me, or Custom: these are the same options as any Timeline post)</li><li>After the broadcast ends, the video post will remain on your Timeline</li></ul><br>Next up, let’s look at the Page Publishing Tool.",

		"instruction":"",
		"_pageLevelProgress": {
			"_isEnabled": false
		}
	},
	{
		"_id": "c-399",
		"_parentId": "b-399",
		"_type": "component",
		"_component": "co-jump",
		"_classes": "color-test",
		"_preLinkBody": "When you ",
		"_linkBody": "Go Live with publishing tools for Pages",
		"_postLinkBody": ", you can access even more functionalities of the API without too much technical know-how.",
		"_link": "#/id/co-400",
		"_graphic": "adapt/css/assets/icon_nextPage.png",
		"_pageLevelProgress": {
			"_isEnabled": false
		}
	},





	{
		"_id":"c-400",
		"_parentId":"b-400",
		"_type":"component",
		"_component":"graphic",
		"_classes":"",
		"_layout":"full",
		"title":"What is the Page Publishing Tool?",
		"displayTitle":"",
		"body":"The Page tool lets you post complex or high-quality Live video to a Page without writing any code.",
		"_graphic": {
			"src": "course/en/images/co-400.png",
			"alt": "Video crew on a location shoot"
		},
		"instruction":"",
		"_pageLevelProgress": {
			"_isEnabled": true
		}
	},
	{
		"_id":"c-410",
		"_parentId":"b-410",
		"_type":"component",
		"_component":"text",
		"_classes":"",
		"_layout":"left",
		"title":"Why choose to go Live with the Page Publishing Tool?",
		"displayTitle":"",
		"body":"<h2>Why choose to go Live with the Page Publishing Tool?</h2><ul><li>Low technical barrier-to-entry</li><li>To tap into the API without approval from Facebook</li><li>To access some audience controls</li><li>To schedule Live video</li><li>To stream continuous Live</li></ul>",
		"instruction":"",
		"_pageLevelProgress": {
			"_isEnabled": true
		}
	},
	{
		"_id":"c-415",
		"_parentId":"b-410",
		"_type":"component",
		"_component":"text",
		"_classes":"",
		"_layout":"right",
		"title":"What are the requirements?",
		"displayTitle":"",
		"body":"<h2>What are the requirements?</h2><ul><li>A Facebook Page</li><li>A video capture device</li><li>A video encoder</li></ul>",
		"instruction":"",
		"_pageLevelProgress": {
			"_isEnabled": true
		}
	},
	{
		"_id":"c-420",
		"_parentId":"b-420",
		"_type":"component",
		"_component":"text",
		"_classes":"",
		"_layout":"left",
		"title":"What are the limitations?",
		"displayTitle":"",
		"body":"<h2>What are the limitations?</h2><ul><li>Can’t simulcast</li><li>Can only geo-gate a maximum of 25 countries</li><li>Can’t stream to profiles, groups or events pages</li><li>Can’t stream directly from mobile phone or tablet</li></ul>",
		"instruction":"",
		"_pageLevelProgress": {
			"_isEnabled": true
		}
	},
	{
		"_id":"c-425",
		"_parentId":"b-420",
		"_type":"component",
		"_component":"text",
		"_classes":"",
		"_layout":"right",
		"title":"Where can you stream to?",
		"displayTitle":"",
		"body":"<h2>Where can you stream to?</h2><ul><li>A Facebook Page</li></ul>",
		"instruction":"",
		"_pageLevelProgress": {
			"_isEnabled": true
		}
	},
	{
		"_id":"c-430",
		"_parentId":"b-430",
		"_type":"component",
		"_component":"graphic",
		"_classes":"",
		"_layout":"full",
		"title":"How do you go Live from a Page via the API?",
		"displayTitle":"How do you go Live from a Page via the API?",
		"body":"To go Live with the Publishing Tool, navigate to the Page and select Publishing Tools from the top navigation bar. You’ll be able to configure your Live post from the Video Library.",
		"_graphic": {
			"src": "course/en/images/PublishingTools_01.png",
			"alt": "Screenshot of Publishing Tools dashboard"
		},
		"instruction":"",
		"_pageLevelProgress": {
			"_isEnabled": true
		}
	},
		{
		"_id":"c-440",
		"_parentId":"b-440",
		"_type":"component",
		"_component":"graphic",
		"_classes":"",
		"_layout":"full",
		"title":"",
		"displayTitle":"",
		"body":"To begin, click on the <span style='padding:.2em .4em;background-color:#eee;'>+ <strong>Live</strong></span> button in the top-right.<br><br><ol><li>First, provide your encoder details. There are two types of streaming software. Depending on which you have, you may be required to provide either a server URL, or a server URL plus stream key. If your encoder requires a stream key, note that you should generate a new one for each Live video: they expire after seven days, or when the stream is stopped.</li></ul>",
		"_graphic": {
			"src": "course/en/images/PublishingTools_02.png",
			"alt": "Screenshot of Publishing Tools dashboard"
		},
		"instruction":"",
		"_pageLevelProgress": {
			"_isEnabled": false
		}
	},
			{
		"_id":"c-441",
		"_parentId":"b-440",
		"_type":"component",
		"_component":"graphic",
		"_classes":"",
		"_layout":"full",
		"title":"",
		"displayTitle":"",
		"body":"<ol start='2'><li>Next, name and tag your Live video. (Video titles should be fewer than 255 characters.)</li></ol>",
		"_graphic": {
			"src": "course/en/images/PublishingTools_04.png",
			"alt": "Screenshot of Publishing Tools dashboard"
		},
		"instruction":"",
		"_pageLevelProgress": {
			"_isEnabled": false
		}
	},		{
		"_id":"c-442",
		"_parentId":"b-440",
		"_type":"component",
		"_component":"graphic",
		"_classes":"",
		"_layout":"full",
		"title":"",
		"displayTitle":"",
		"body":"<ol start='3'><li>Choose the “target” icon to restrict certain groups from seeing your Live stream. You can restrict audiences by age, gender, location, or language.</li></ol>",
		"_graphic": {
			"src": "course/en/images/PublishingTools_05.png",
			"alt": "Screenshot of Publishing Tools dashboard"
		},
		"instruction":"",
		"_pageLevelProgress": {
			"_isEnabled": false
		}
	},		{
		"_id":"c-443",
		"_parentId":"b-440",
		"_type":"component",
		"_component":"graphic",
		"_classes":"",
		"_layout":"full",
		"title":"",
		"displayTitle":"",
		"body":"<ol start='4'><li>If your Live video will include third-party products or feature branded content, <a href='https://www.facebook.com/facebookmedia/get-started/branded-content' target='_blank'>Facebook policy</a> requires that you tag that Page to notify them. </li></ol>",
		"_graphic": {
			"src": "course/en/images/PublishingTools_06.png",
			"alt": "Screenshot of Publishing Tools dashboard"
		},
		"instruction":"",
		"_pageLevelProgress": {
			"_isEnabled": false
		}
	},		{
		"_id":"c-444",
		"_parentId":"b-440",
		"_type":"component",
		"_component":"text",
		"_classes":"",
		"_layout":"full",
		"title":"",
		"displayTitle":"",
		"body":"<ol start='5'><li>Then, you can hit the <span style='padding:.2em .4em;color:#fff;background-color:#3b5998;font-weight:bold;'>Go Live</span> button to begin the stream, or choose Schedule Live to build buzz (up to one week in advance of your Live stream). </li></ol><br><br>The Advanced tab contains options that let you:<br><br><ul><li>Choose where you’d like the video to appear: prohibit embedding, opt to unpublish video after the stream ends, or include warnings about graphic content.</li><li>Pull a player embed code.</li><li>Create a continuous Live stream.</li><li>Create a Live reference stream for Rights Manager to help Facebook protect your content from online piracy.</li></ul><br><br><div style='margin:0 3em;padding:2em;background-color:#eceff5;border-radius:4;'><strong>Rights Manager</strong> is one of several content management tools that can help copyright owners protect and manage the rights to their videos and accompanying audio on Facebook.</div>",
		"instruction":"",
		"_pageLevelProgress": {
			"_isEnabled": false
		}
	},
	{
		"_id": "c-499",
		"_parentId": "b-499",
		"_type": "component",
		"_component": "co-jump",
		"_classes": "color-test",
		"_preLinkBody": "You'll need technical skills and a dedicated Facebook app to ",
		"_linkBody": "Go Live Programmatically",
		"_postLinkBody": " and unlock the full potential of the Live API.",
		"_link": "#/id/co-500",
		"_graphic": "adapt/css/assets/icon_nextPage.png",
		"_pageLevelProgress": {
			"_isEnabled": false
		}
	},





	{
		"_id":"c-500",
		"_parentId":"b-500",
		"_type":"component",
		"_component":"graphic",
		"_classes":"",
		"_layout":"full",
		"title":"Access the API programmatically",
		"displayTitle":"",
		"body":"Tapping into the full power of the API lets you broadcast Live video to the greatest number of places online, and gives you the greatest scope to manage and modify Live video settings and audiences. The process requires a bit of tech know-how, but if you or your developer have used Facebook’s Graph API in the past, the two are very similar. <br><br>That’s because the Live API is built right on top of the Graph API, and simply extends what it can do. ",
		"_graphic": {
			"src": "course/en/images/co-500.png",
			"alt": "Screenshot of Publishing Tools dashboard"
		},
		"instruction":"",
		"_pageLevelProgress": {
			"_isEnabled": true
		}
	},
	{
		"_id":"c-510",
		"_parentId":"b-510",
		"_type":"component",
		"_component":"text",
		"_classes":"",
		"_layout":"full",
		"title":"Setup for accessing the Live API",
		"displayTitle":"",
		"body":"You’ll need a Facebook app ID to connect to any Facebook API. To get one, you’ll have to have built a Facebook app, and have it approved. <br><br>The Graph API lets developers mix and match elements of Facebook from their application, bypassing Facebook’s desktop and mobile interfaces. Developers can perform (or automate) standard Facebook actions &mdash; like creating groups and reacting to posts &mdash; with code, rather than through Facebook’s visual interface. They can even can build custom interfaces based on your needs, which non-developers can use in-house.<br><br>Let’s dig into some benefits and challenges of going Live programmatically via the API.",
		"instruction":"",
		"_pageLevelProgress": {
			"_isEnabled": true
		}
	},
	{
		"_id":"c-520",
		"_parentId":"b-520",
		"_type":"component",
		"_component":"text",
		"_classes":"",
		"_layout":"left",
		"title":"Why go Live programmatically?",
		"displayTitle":"",
		"body":"<h2>Why go Live programmatically?</h2><ul><li>To stream to or from a custom UI within an app or website</li><li>To integrate Live into your products</li><li>To simulcast content on distribution channels you own (not to third-party sites)</li><li>To geo-gate content beyond the 25 countries allowed with Page publishing tools</li></ul>",
		"instruction":"",
		"_pageLevelProgress": {
			"_isEnabled": true
		}
	},
	{
		"_id":"c-525",
		"_parentId":"b-520",
		"_type":"component",
		"_component":"text",
		"_classes":"",
		"_layout":"right",
		"title":"What are the requirements?",
		"displayTitle":"",
		"body":"<h2>What are the requirements?</h2><ul><li>A Facebook Page</li><li>An encoder</li><li>A developer or engineer who is familiar with Facebook APIs</li><li>An approved Facebook app with a Facebook App ID</li><li>A webpage or app that integrates Facebook JS SDK</li></ul>",
		"instruction":"",
		"_pageLevelProgress": {
			"_isEnabled": true
		}
	},
	{
		"_id":"c-530",
		"_parentId":"b-530",
		"_type":"component",
		"_component":"text",
		"_classes":"",
		"_layout":"left",
		"title":"What are the limitations?",
		"displayTitle":"",
		"body":"<h2>What are the limitations?</h2><ul><li>Can’t stream directly from mobile phone or tablet</li></ul>",
		"instruction":"",
		"_pageLevelProgress": {
			"_isEnabled": true
		}
	},
		{
		"_id":"c-535",
		"_parentId":"b-530",
		"_type":"component",
		"_component":"text",
		"_classes":"",
		"_layout":"right",
		"title":"Where can you stream to?",
		"displayTitle":"",
		"body":"<h2>Where can you stream to?</h2><ul><li>A Facebook Page</li><li>A Facebook events page</li><li>Facebook groups</li><li>Facebook profiles</li><li>Your own website or distribution channel</li></ul>",
		"instruction":"",
		"_pageLevelProgress": {
			"_isEnabled": true
		}
	},
	{
		"_id":"c-540",
		"_parentId":"b-540",
		"_type":"component",
		"_component":"text",
		"_classes":"",
		"_layout":"full",
		"title":"How do you go Live programmatically via the API?",
		"displayTitle":"How do you go Live programmatically via the API?",
		"body":"For details on going Live via the API, refer to the <a href='https://developers.facebook.com/docs/videos/live-video' target='_blank'>Live API documentation</a> on the Facebook for Developers website.",
		"instruction":"",
		"_pageLevelProgress": {
			"_isEnabled": true
		}
	},
	{
		"_id": "c-599",
		"_parentId": "b-599",
		"_type": "component",
		"_component": "co-jump",
		"_classes": "color-test",
		"_preLinkBody": "Explore some ",
		"_linkBody": "Success Stories",
		"_postLinkBody": " to learn how brands are meeting business goals with the Live API. ",
		"_link": "#/id/co-600",
		"_graphic": "adapt/css/assets/icon_nextPage.png",
		"_pageLevelProgress": {
			"_isEnabled": false
		}
	},





	{
		"_id":"c-600",
		"_parentId":"b-600",
		"_type":"component",
		"_component":"text",
		"_classes":"",
		"_layout":"full",
		"title":"Variety of uses for the Live API",
		"displayTitle":"",
		"body":"From fitness bootcamps to cosmetic brands, annual awards ceremonies to weekly interactive talk shows, brands and social influencers are tapping into Facebook Live to incorporate multiple cameras, audio sources, and more. ",
		"instruction":"",
		"_pageLevelProgress": {
			"_isEnabled": true
		}
	},
	{
		"_id":"c-601",
		"_parentId":"b-600",
		"_type":"component",
		"_component":"text",
		"_classes":"",
		"_layout":"full",
		"title":"Real-time politics on RedeTV! ",
		"displayTitle":"RedeTV!: Real-time politics ",
		"body":"",
		"instruction":"",
		"_pageLevelProgress": {
			"_isEnabled": true
		}
	},
	{
		"_id":"c-610",
		"_parentId":"b-610",
		"_type":"component",
		"_component":"text",
		"_classes":"",
		"_layout":"left",
		"title":"",
		"displayTitle":"",
		"body":"During Brazil's 2016 election, <strong>RedeTV!</strong> used the Live API to simultaneously broadcast political debates to TV and Facebook. Facebook viewers were presented with exclusive Live content during times when TV viewers saw commercial breaks.<br><br>Using data collected from Facebook and other APIs, reporters developed detailed profiles of viewers in Brazil's three largest metropolitan regions, and used these insights to refine debate questions that local candidates were asked, in real-time.<br><br>411K unique viewers saw the three debates; the reach of the Rio de Janeiro debate was 15X greater than average video reach from the previous quarter. <br><br><a href='https://www.facebook.com/facebookmedia/success-stories/globalnews-live' target='_blank'>Learn more about RedeTV's use of the Live API</a><br><br><a href='https://www.facebook.com/facebookmedia/success-stories/rede-tv-eleicoes' target='_blank'>Explore an in-depth case study (in Portuguese)</a>",
		"instruction":"",
		"_pageLevelProgress": {
			"_isEnabled": false
		}
	},
	{
		"_id":"c-615",
		"_parentId":"b-610",
		"_type":"component",
		"_component":"media",
		"_classes":"",
		"_layout":"right",
		"title":"",
		"displayTitle":"",
		"_mute":"true",
		"body":"<em>(Video has no sound)</em>",
		"instruction": "",
		"_setCompletionOn":"inview",
		"_useClosedCaptions":false,
		"_media": {
			"width": 480,
			"height": 270,
			"mp4": "course/en/images/Rede01_jp_rev1.mp4",
			"poster":""
		},
		"_playerOptions": {
			"poster": "",
			"showPosterWhenEnded": false,
			"defaultVideoWidth": 480,
			"defaultVideoHeight": 270,
			"videoWidth": -1,
			"videoHeight": -1,
			"defaultAudioWidth": 400,
			"defaultAudioHeight": 30,
			"autoPlay": true,
			"defaultSeekBackwardInterval": "(media.duration * 0.05)",
			"defaultSeekForwardInterval": "(media.duration * 0.05)",
			"audioWidth": -1,
			"audioHeight": -1,
			"startVolume": 0.8,
			"loop": false,
			"autoRewind": true,
			"enableAutosize": true,
			"alwaysShowHours": false,
			"showTimecodeFrameCount": false,
			"framesPerSecond": 25,
			"autosizeProgress" : true,
			"alwaysShowControls": true,
			"hideVideoControlsOnLoad": false,
			"clickToPlayPause": true,
			"iPadUseNativeControls": false,
			"iPhoneUseNativeControls": false,
			"AndroidUseNativeControls": false,
			"features": [
				"autoplay",
				"playpause",
				"current",
				"progress",
				"duration",
				"tracks",
				"volume",
				"fullscreen"
			],
			"isVideo": true,
			"enableKeyboard": true,
			"pauseOtherPlayers": true,
			"startLanguage": "",
			"tracksText": "mejs.i18n.t('Captions/Subtitles')",
			"hideCaptionsButtonWhenEmpty": true,
			"toggleCaptionsButtonWhenOnlyOne": false,
			"slidesSelector": ""
		}
	},
	{
		"_id":"c-620",
		"_parentId":"b-620",
		"_type":"component",
		"_component":"text",
		"_classes":"",
		"_layout":"full",
		"title":"HomeAway",
		"displayTitle":"",
		"body":"",
		"instruction":"",
		"_pageLevelProgress": {
			"_isEnabled": true
		}
	},
	{
		"_id":"c-621",
		"_parentId":"b-620",
		"_type":"component",
		"_component":"media",
		"_classes":"",
		"_layout":"left",
		"title":"",
		"displayTitle":"Home Away",
		"body":"",
		"instruction": "",
		"_setCompletionOn":"inview",
		"_useClosedCaptions":true,
		"_media": {
			"mp4": "course/en/images/Home_Away_Eiffel_Tower_jp_rev1.mp4",
			"poster":""
		},
		"_playerOptions": {
			"poster": "",
			"showPosterWhenEnded": false,
			"defaultVideoWidth": 480,
			"defaultVideoHeight": 270,
			"videoWidth": -1,
			"videoHeight": -1,
			"defaultAudioWidth": 400,
			"defaultAudioHeight": 30,
			"autoPlay": true,
			"defaultSeekBackwardInterval": "(media.duration * 0.05)",
			"defaultSeekForwardInterval": "(media.duration * 0.05)",
			"audioWidth": -1,
			"audioHeight": -1,
			"startVolume": 0.8,
			"loop": false,
			"autoRewind": true,
			"enableAutosize": true,
			"alwaysShowHours": false,
			"showTimecodeFrameCount": false,
			"framesPerSecond": 25,
			"autosizeProgress" : true,
			"alwaysShowControls": true,
			"hideVideoControlsOnLoad": false,
			"clickToPlayPause": true,
			"iPadUseNativeControls": false,
			"iPhoneUseNativeControls": false,
			"AndroidUseNativeControls": false,
			"features": [
				"autoplay",
				"playpause",
				"current",
				"progress",
				"duration",
				"tracks",
				"volume",
				"fullscreen"
			],
			"isVideo": true,
			"enableKeyboard": true,
			"pauseOtherPlayers": false,
			"startLanguage": "",
			"tracksText": "mejs.i18n.t('Captions/Subtitles')",
			"hideCaptionsButtonWhenEmpty": true,
			"toggleCaptionsButtonWhenOnlyOne": false,
			"slidesSelector": ""
		}
	},
		{
		"_id":"c-625",
		"_parentId":"b-620",
		"_type":"component",
		"_component":"text",
		"_classes":"",
		"_layout":"right",
		"title":" ",
		"displayTitle":"",
		"body":"In 2016, vacation rental company <strong>HomeAway</strong> built a private apartment inside the Eiffel Tower, and used Facebook’s Live API to extend the experience far beyond the contest winners who got to visit it firsthand. Guests were welcomed by actress Mira Sorvino, enjoyed a meal by an award-winning chef, and had their portraits painted by a famous artist.<br><br>HomeAway extended the life of Live video by re-cutting and repackaging it into Facebook video ads. 21 million people watched the Live video, and an additional 7 million saw the three-week ad campaign, resulting in a 5-point lift in ad recall and a 4-point lift in brand awareness.<br><br><a href='https://www.facebook.com/business/success/homeaway' target='_new'>Learn more about this HomeAway Live stream and campaign</a>",
		"instruction":"",
		"_pageLevelProgress": {
			"_isEnabled": false
		}
	},
	{
		"_id": "c-699",
		"_parentId": "b-699",
		"_type": "component",
		"_component": "co-jump",
		"_classes": "color-test",
		"_preLinkBody": "Here comes the fine print: Let’s do a quick ",
		"_linkBody": "Wrap up and best practices",
		"_postLinkBody": " overview.",
		"_link": "#/id/co-700",
		"_graphic": "adapt/css/assets/icon_nextPage.png",
		"_pageLevelProgress": {
			"_isEnabled": false
		}
	},





	{
		"_id":"c-700",
		"_parentId":"b-700",
		"_type":"component",
		"_component":"text",
		"_classes":"",
		"_layout":"full",
		"title":"General Live Video best practices",
		"displayTitle":"",
		"body":"There are a lot of moving parts to the Live API &mdash; especially considering that there’s a whole other set of rules and processes for Facebook Live video when it doesn’t use the API. Let’s review some general rules of thumb. The Blueprint course, “Connect and Engage With Your Audience Using Facebook Live,” examines technical specs and best practices for Live video in greater detail.",
		"instruction":"",
		"_pageLevelProgress": {
			"_isEnabled": true
		}
	},
		{
		"_id":"c-710",
		"_parentId":"b-710",
		"_type":"component",
		"_component":"text",
		"_classes":"",
		"_layout":"full",
		"title":"Recommendations",
		"displayTitle":"Recommendations",
		"body":"To ensure the success of your Live video, pay attention to these guidelines:<br><br><ul><li><strong>Use a test Page</strong>. Consider setting up an unpublished Page that you can use for testing purposes.</li><li><strong>Ensure the stability of your stream</strong> by setting up a wired internet connection and choosing a hardware encoder. Keep your frame rate under 30 fps and your bit rate at or below 4 mbps to avoid crashing.</li><li><strong>Tag your location to get found </strong>. This adds you to the Facebook Live Map, where people go to discover Live video.</li><li><strong>Avoid using prerecorded video</strong> in a Live video. While encoders make it possible to edit prerecorded content into a Live video, we don’t recommend it. If you include prerecorded material, please follow Facebook policy by ensuring that it’s clearly distinguishable from Live content.</li><li><strong>Avoid including third-party ads or copyrighted material</strong> in your Live video, or it could be in breach of Facebook’s terms of service. If you’re using third-party content with the rights owner’s permission, tag the Page of whoever produced that content.</li><li><strong>Live video has a time limit</strong>. Unless you’re broadcasting continuous Live video, you can only stay up for 4 hours.</li></ul>",
		"instruction":"",
		"_pageLevelProgress": {
			"_isEnabled": true
		}
	},
		{
		"_id":"c-720",
		"_parentId":"b-720",
		"_type":"component",
		"_component":"text",
		"_classes":"",
		"_layout":"full",
		"title":"Evaluate your Live video",
		"displayTitle":"Evaluate your Live video",
		"body":"For information about standard Live video, Live best practices, processes, and which reporting metrics are available during and after streaming Live, we strongly recommend checking out more Facebook Live courses on Blueprint. ",
		"instruction":"",
		"_pageLevelProgress": {
			"_isEnabled": true
		}
	},
		{
		"_id":"c-730",
		"_parentId":"b-730",
		"_type":"component",
		"_component":"text",
		"_classes":"",
		"_layout":"full",
		"title":"Live API Policies",
		"displayTitle":"Live API Policies",
		"body":"Follow the platform policies. These are the rules we ask developers to follow when they use the Live API:<br><br><ul><li>Don’t use the API to simultaneously stream to Facebook and other online services</li><li>Don’t use the API to stream directly from a mobile phone or tablet camera to Facebook</li><li>Ensure any pre-recorded content is clearly distinguishable from live content</li><li>If you enable people to publish Live Video to Facebook, remind them of their obligation to not include third party ads in their video content and to clearly distinguish any pre-recorded content from live content",
		"instruction":"",
		"_pageLevelProgress": {
			"_isEnabled": true
		}
	},
	{
		"_id": "c-799",
		"_parentId": "b-799",
		"_type": "component",
		"_component": "co-jump",
		"_classes": "color-test",
		"_preLinkBody": "",
		"_linkBody": "Knowledge Check",
		"_postLinkBody": "! Take a quick self-evaluation to gauge what you got out of this course. Don’t worry; it’s not graded.",
		"_link": "#/id/co-800",
		"_graphic": "adapt/css/assets/icon_nextPage.png",
		"_pageLevelProgress": {
			"_isEnabled": false
		}
	},





	{
		"_id":"c-800",
		"_parentId":"b-800",
		"_type":"component",
		"_component":"mcq",
		"_classes":"",
		"_layout":"full",
		"_attempts":1,
		"_setCompletionOn":"inview",
		"_shouldDisplayAttempts": false,
		"_questionWeight":1,
		"_isRandom":false,
		"_selectable":1,
		"title": "Question 1 of 3",
		"displayTitle": "Question 1 of 3",
		"body": "You’d like to livestream video games on your Facebook timeline. What’s the simplest way to tap into the Live API? ",
		"instruction": "",
		"_items": [
			{
				"text": "Control Panel",
				"_shouldBeSelected":true
			},
			{
				"text": "Page Publishing Tool",
				"_shouldBeSelected":false,
				"feedback":""
			},
			{
				"text": "Programmatically",
				"_shouldBeSelected":false
			},
			{
				"text": "That can’t be done through the API",
				"_shouldBeSelected":false,
				"feedback":""
			}
		],
		"_feedback":{
			"correct":"Perfect! The Control Panel lets you stream live gameplay to a Facebook profile.",
			"_incorrect": {
				"notFinal": "",
				"final": "Sorry, that’s not right. The simplest way to go Live to a profile is from the Control Panel."
			},
			"_buttons": {
				"_submit": {
					"buttonText": "Submit",
					"ariaLabel": "Select here to submit your answer."
				},
				"_reset": {
					"buttonText": "Reset",
					"ariaLabel": ""
				},
				"_showCorrectAnswer": {
					"buttonText": "Correct Answer",
					"ariaLabel": ""
				},
				"_hideCorrectAnswer": {
					"buttonText": "My Answer",
					"ariaLabel": ""
				},
				"_showFeedback": {
					"buttonText": "Show feedback",
					"ariaLabel": ""
				},
				"remainingAttemptsText": "attempts remaining",
				"remainingAttemptText": "final attempt"
			},
			"_pageLevelProgress": {
				"_isEnabled": true
			}
		}
	},
	{
		"_id":"c-810",
		"_parentId":"b-810",
		"_type":"component",
		"_component":"mcq",
		"_classes":"",
		"_layout":"full",
		"_attempts":1,
		"_setCompletionOn":"inview",
		"_shouldDisplayAttempts": false,
		"_questionWeight":1,
		"_isRandom":false,
		"_selectable":2,
		"title": "Question 2 of 3",
		"displayTitle": "Question 2 of 3",
		"body": "What are TWO ways to go Live to an event page?",
		"instruction": "",
		"_items": [
			{
				"text": "Control Panel",
				"_shouldBeSelected":true,
				"feedback":""
			},
			{
				"text": "Page Publishing Tool",
				"_shouldBeSelected":false,
				"feedback":""
			},
			{
				"text": "Programmatically",
				"_shouldBeSelected":true
			},
			{
				"text": "As a Live Contributor",
				"_shouldBeSelected":false,
				"feedback":""
			}
		],
		"_feedback":{
			"correct":"Great job! You can go Live to an event page through the Control Panel interface, or programmatically via the API.",
			"_incorrect": {
				"notFinal": "",
				"final": "Not quite. You can only go Live to an event page from Control Panel, or programmatically via the API. "
			},
			"_partlyCorrect": {
				"notFinal": "",
				"final": "So close! You can only go Live to an event page from Control Panel, or programmatically via the API. "
			},
			"_buttons": {
				"_submit": {
					"buttonText": "Submit",
					"ariaLabel": "Select here to submit your answer."
				},
				"_reset": {
					"buttonText": "Reset",
					"ariaLabel": ""
				},
				"_showCorrectAnswer": {
					"buttonText": "Correct Answer",
					"ariaLabel": ""
				},
				"_hideCorrectAnswer": {
					"buttonText": "My Answer",
					"ariaLabel": ""
				},
				"_showFeedback": {
					"buttonText": "Show feedback",
					"ariaLabel": ""
				},
				"remainingAttemptsText": "attempts remaining",
				"remainingAttemptText": "final attempt"
			},
			"_pageLevelProgress": {
				"_isEnabled": true
			}
		}
	},
	{
		"_id":"c-820",
		"_parentId":"b-820",
		"_type":"component",
		"_component":"mcq",
		"_classes":"",
		"_layout":"full",
		"_attempts":1,
		"_setCompletionOn":"inview",
		"_shouldDisplayAttempts": false,
		"_questionWeight":1,
		"_isRandom":false,
		"_selectable":1,
		"title": "Question 3 of 3",
		"displayTitle": "Question 3 of 3",
		"body": "It’s against Facebook’s Terms of Service to distribute Live video:",
		"instruction": "",
		"_items": [
			{
				"text": "By sharing a Live post on a profile or to a different Page.",
				"_shouldBeSelected":false
			},
			{
				"text": "By embedding links to Live video on third-party apps or websites.",
				"_shouldBeSelected":false,
				"feedback":""
			},
			{
				"text": "By streaming directly to Facebook plus third-party apps or video-sharing services.",
				"_shouldBeSelected":true
			},
			{
				"text": "By streaming directly to any destination other than Facebook.",
				"_shouldBeSelected":false,
				"feedback":""
			}
		],
		"_feedback":{
			"correct":"You got it! Streaming Facebook Live video to other video-sharing sites via the API is against policy. You can totally stream to your own website, and sharing or embedding video is okay, too.",
			"_incorrect": {
			"notFinal": "",
			"final": "Close, but not exactly. You can share and embed Live video, and you can stream directly to your own website. However, using the API to stream Live video to another video-sharing service isn’t allowed. "
			},
			"_buttons": {
				"_submit": {
					"buttonText": "Submit",
					"ariaLabel": "Select here to submit your answer."
				},
				"_reset": {
					"buttonText": "Reset",
					"ariaLabel": ""
				},
				"_showCorrectAnswer": {
					"buttonText": "Correct Answer",
					"ariaLabel": ""
				},
				"_hideCorrectAnswer": {
					"buttonText": "My Answer",
					"ariaLabel": ""
				},
				"_showFeedback": {
					"buttonText": "Show feedback",
					"ariaLabel": ""
				},
				"remainingAttemptsText": "attempts remaining",
				"remainingAttemptText": "final attempt"
			},
			"_pageLevelProgress": {
				"_isEnabled": true
			}
		}
	},
    {
        "_id":"c-899",
        "_parentId":"b-899",
        "_type":"component",
        "_component":"co-jump",
        "_classes":"color-test",
        "_autoComplete":true,
        "_preLinkBody":"Click the button below to finish this course. Note: <a href='#'>click here</a> to verify that status bars for each module are complete.<br>",
        "_linkBody":"<div style = 'text-align:center;padding:8px;'><button class='buttons-action'><b>I'M FINISHED WITH THIS COURSE</b></button></div><br> ",
        "_postLinkBody":"",
        "_link":"",
        "_pageLevelProgress": {
            "_isEnabled": false
        }
    }
]
